0
0
0
0
0
0.0909091
0.0833333
0.0769231
0.0714286
0.0666667
0.125
0.117647
0.111111
0.157895
0.15
0.142857
0.136364
0.130435
0.125
0.12
0.115385
0.111111
0.142857
0.137931
0.166667
0.193548
0.1875
0.181818
0.176471
0.171429
0.194444
0.189189
0.184211
0.179487
0.175
0.170732
0.166667
0.162791
0.159091
0.177778
0.173913
0.170213
0.166667
0.163265
0.18
0.215686
0.307692
0.320755
0.333333
0.327273
0.321429
0.333333
0.327586
0.322034
0.333333
0.327869
0.403226
0.396825
0.421875
0.415385
0.409091
0.402985
0.397059
0.391304
0.385714
0.380282
0.375
0.369863
0.364865
0.373333
0.368421
0.376623
0.371795
0.367089
0.375
0.37037
0.365854
0.361446
0.357143
0.352941
0.406977
0.413793
0.454545
0.460674
0.466667
0.461538
0.48913
0.494624
0.5
0.515789
0.510417
0.505155
0.5
0.494949
0.49
0.485149
0.529412
0.524272
0.528846
0.52381
0.528302
0.53271
0.527778
0.522936
0.527273
0.522523
0.517857
0.513274
0.508772
0.504348
0.508621
0.512821
0.508475
0.504202
0.5
0.495868
0.491803
0.487805
0.483871
0.48
0.47619
0.472441
0.46875
0.465116
0.469231
0.473282
0.469697
0.466165
0.470149
0.466667
0.470588
0.467153
0.471014
0.467626
0.471429
0.468085
0.471831
0.468531
0.5
0.503448
0.506849
0.503401
0.5
0.496644
0.493333
0.490066
0.486842
0.48366
0.480519
0.477419
0.474359
0.471338
0.468354
0.465409
0.4625
0.465839
0.462963
0.490798
0.487805
0.490909
0.487952
0.48503
0.482143
0.485207
0.482353
0.479532
0.476744
0.479769
0.477011
0.474286
0.471591
0.474576
0.47191
0.47486
0.477778
0.475138
0.472527
0.469945
0.467391
0.464865
0.462366
0.459893
0.462766
0.460317
0.457895
0.455497
0.458333
0.455959
0.453608
0.451282
0.454082
0.451777
0.449495
0.447236
0.445
0.442786
0.445545
0.453202
0.45098
0.44878
0.446602
0.444444
0.447115
0.444976
0.442857
0.445498
0.443396
0.441315
0.439252
0.437209
0.435185
0.437788
0.440367
0.442922
0.440909
0.443439
0.463964
0.470852
0.473214
0.471111
0.477876
0.475771
0.473684
0.471616
0.469565
0.467532
0.482759
0.480687
0.482906
0.480851
0.483051
0.481013
0.478992
0.476987
0.475
0.481328
0.479339
0.481481
0.483607
0.485714
0.49187
0.489879
0.491935
0.493976
0.492
0.49004
0.488095
0.494071
0.492126
0.509804
0.511719
0.513619
0.515504
0.513514
0.523077
0.521073
0.522901
0.528517
0.526515
0.532075
0.533835
0.531835
0.533582
0.531599
0.52963
0.527675
0.525735
0.52381
0.521898
0.52
0.518116
0.516245
0.514388
0.512545
0.510714
0.508897
0.507092
0.5053
0.503521
0.501754
0.506993
0.505226
0.503472
0.50173
0.5
0.498282
0.496575
0.498294
0.496599
0.494915
0.496622
0.494949
0.493289
0.491639
0.49
0.488372
0.486755
0.485149
0.483553
0.481967
0.48366
0.482085
0.480519
0.478964
0.493548
0.491961
0.503205
0.517572
0.515924
0.520635
0.522152
0.536278
0.534591
0.53605
0.534375
0.535826
0.534161
0.535604
0.533951
0.535385
0.533742
0.53211
0.530488
0.528875
0.527273
0.52568
0.524096
0.522523
0.532934
0.531343
0.529762
0.52819
0.526627
0.525074
0.526471
0.524927
0.523392
0.521866
0.523256
0.521739
0.520231
0.518732
0.517241
0.515759
0.514286
0.51567
0.514205
0.512748
0.511299
0.512676
0.511236
0.512605
0.513966
0.51532
0.513889
0.512465
0.516575
0.515152
0.516484
0.515068
0.513661
0.512262
0.51087
0.509485
0.508108
0.506739
0.505376
0.504021
0.502674
0.501333
0.5
0.498674
0.497354
0.496042
0.507895
0.509186
0.510471
0.509138
0.510417
0.511688
0.510363
0.509044
0.507732
0.514139
0.515385
0.514066
0.512755
0.51145
0.522843
0.521519
0.520202
0.518892
0.517588
0.518797
0.5175
0.516209
0.517413
0.516129
0.517327
0.518519
0.519704
0.518428
0.519608
0.518337
0.517073
0.515815
0.514563
0.513317
0.512077
0.510843
0.512019
0.510791
0.521531
0.520286
0.528571
0.529691
0.528436
0.527187
0.525943
0.524706
0.528169
0.529274
0.528037
0.526807
0.527907
0.526682
0.525463
0.524249
0.525346
0.524138
0.525229
0.524027
0.522831
0.52164
0.520455
0.519274
0.5181
0.51693
0.515766
0.514607
0.513453
0.512304
0.511161
0.512249
0.513333
0.512195
0.511062
0.509934
0.508811
0.507692
0.506579
0.507659
0.50655
0.505447
0.504348
0.503254
0.502165
0.50108
0.5
0.501075
0.5
0.498929
0.497863
0.496802
0.495745
0.494692
0.493644
0.503171
0.508439
0.507368
0.510504
0.509434
0.508368
0.507307
0.514583
0.513514
0.512448
0.513458
0.520661
0.521649
0.522634
0.521561
0.520492
0.521472
0.522449
0.521385
0.52439
0.523327
0.522267
0.521212
0.520161
0.519115
0.52008
0.519038
0.518
0.516966
0.515936
0.514911
0.513889
0.512871
0.519763
0.52071
0.519685
0.518664
0.519608
0.518591
0.527344
0.526316
0.527237
0.528155
0.527132
0.535783
0.534749
0.533719
0.532692
0.53167
0.532567
0.531549
0.534351
0.533333
0.541825
0.540797
0.543561
0.544423
0.543396
0.542373
0.541353
0.547842
0.550562
0.55514
0.554104
0.553073
0.552045
0.554731
0.553704
0.55268
0.551661
0.552486
0.555147
0.554128
0.553114
0.552102
0.551095
0.550091
0.549091
0.548094
0.547101
0.546112
0.545126
0.544144
0.543165
0.54219
0.543011
0.542039
0.541071
0.540107
0.539146
0.538188
0.542553
0.550442
0.54947
0.550265
0.549296
0.54833
0.547368
0.54641
0.545455
0.553229
0.552265
0.556522
0.555556
0.558059
0.558824
0.557858
0.558621
0.557659
0.556701
0.559177
0.558219
0.557265
0.556314
0.555366
0.554422
0.555178
0.554237
0.553299
0.552365
0.551433
0.552189
0.552941
0.552013
0.552764
0.558528
0.559265
0.561667
0.560732
0.559801
0.558872
